analysis/data/calibration/C1Trace00045.txt

"Record Length",100002,"Points",-0.00055600359,0.000166667
"Sample Interval",1e-008,s,-0.00055599359,0.000166667
"Trigger Point",55600,"Samples",-0.00055598359,0.000166667
"Trigger Time",0.3595,s,-0.00055597359,0
,,,-0.00055596359,0
"Horizontal Offset",-0.000556004,s,-0.00055595359,0.000166667
,,,-0.00055594359,0.000166667
,,,-0.00055593359,0
,,,-0.00055592359,0.000833333
,,,-0.00055591359,0.00116667
,,,-0.00055590359,0.000166667
,,,-0.00055589359,0.000166667
,,,-0.00055588359,0.000333333
,,,-0.00055587359,0.000166667
,,,-0.00055586359,0
,,,-0.00055585359,-0.000666667
,,,-0.00055584359,0
,,,-0.00055583359,0.000333333
,,,-0.00055582359,0.000166667
,,,-0.00055581359,0.000333333
,,,-0.00055580359,-0.000166667
,,,-0.00055579359,-0.000166667
,,,-0.00055578359,0
,,,-0.00055577359,0.000166667
,,,-0.00055576359,0.000166667
,,,-0.00055575359,0.000166667
,,,-0.00055574359,0.000166667
,,,-0.00055573359,0.000166667
,,,-0.00055572359,0.000166667
,,,-0.00055571359,0.000166667
,,,-0.00055570359,0.000166667
,,,-0.00055569359,0.000166667
,,,-0.00055568359,0.000166667
,,,-0.00055567359,0.000166667
,,,-0.00055566359,0.000166667
,,,-0.00055565359,0
,,,-0.00055564359,0.000333333
,,,-0.00055563359,0.000166667
,,,-0.00055562359,0.000166667
,,,-0.00055561359,0.000166667
,,,-0.00055560359,0.000166667
,,,-0.00055559359,0.000166667
,,,-0.00055558359,0.000166667
,,,-0.00055557359,0.000166667
,,,-0.00055556359,0.000166667
,,,-0.00055555359,0.000166667
,,,-0.00055554359,0.000166667
,,,-0.00055553359,0.000166667
,,,-0.00055552359,0.000166667
,,,-0.00055551359,0.000166667
,,,-0.00055550359,0.000166667
,,,-0.00055549359,0
,,,-0.00055548359,0.000166667
,,,-0.00055547359,0.000166667
,,,-0.00055546359,0.000166667
,,,-0.00055545359,0.000166667
,,,-0.00055544359,0
,,,-0.00055543359,0
,,,-0.00055542359,0.000333333
,,,-0.00055541359,0.000166667
,,,-0.00055540359,0.000166667
,,,-0.00055539359,0.000166667
,,,-0.00055538359,0.000166667
,,,-0.00055537359,0
,,,-0.00055536359,0
,,,-0.00055535359,0.000166667
,,,-0.00055534359,0.000166667
,,,-0.00055533359,0.000166667
,,,-0.00055532359,0
,,,-0.00055531359,0
,,,-0.00055530359,0.000166667
,,,-0.00055529359,0
,,,-0.00055528359,0
,,,-0.00055527359,0
,,,-0.00055526359,0
,,,-0.00055525359,0.000166667
,,,-0.00055524359,0.000166667
,,,-0.00055523359,0
,,,-0.00055522359,0.000166667
,,,-0.00055521359,0.000166667
,,,-0.00055520359,0
,,,-0.00055519359,-0.000333333
,,,-0.00055518359,-0.000333333
,,,-0.00055517359,0.000166667
,,,-0.00055516359,0.000166667
,,,-0.00055515359,-0.000166667
,,,-0.00055514359,-0.000166667
,,,-0.00055513359,0.000166667
,,,-0.00055512359,0.000166667
,,,-0.00055511359,-0.000166667
,,,-0.00055510359,0.000166667
,,,-0.00055509359,0.000166667
,,,-0.00055508359,0
,,,-0.00055507359,0
,,,-0.00055506359,0.000166667
,,,-0.00055505359,0.000166667
,,,-0.00055504359,0
,,,-0.00055503359,0.000166667
,,,-0.00055502359,0
,,,-0.00055501359,0
,,,-0.00055500359,0.000166667
,,,-0.00055499359,0
,,,-0.00055498359,0.000166667
,,,-0.00055497359,0.000166667
,,,-0.00055496359,0.000166667
,,,-0.00055495359,0.000166667
,,,-0.00055494359,0
,,,-0.00055493359,0.000166667
,,,-0.00055492359,0.000166667
,,,-0.00055491359,0.000166667
,,,-0.00055490359,0.000166667
,,,-0.00055489359,0
,,,-0.00055488359,0.000166667
,,,-0.00055487359,0.000166667
,,,-0.00055486359,0.000166667
,,,-0.00055485359,0.000166667
,,,-0.00055484359,0
,,,-0.00055483359,0.000166667
,,,-0.00055482359,0
,,,-0.00055481359,0.000166667
,,,-0.00055480359,0.000166667
,,,-0.00055479359,0.000166667
,,,-0.00055478359,0
,,,-0.00055477359,0.000166667
,,,-0.00055476359,0.000166667
,,,-0.00055475359,0
,,,-0.00055474359,0
,,,-0.00055473359,0.000166667
,,,-0.00055472359,0
,,,-0.00055471359,0.000166667
,,,-0.00055470359,0.000166667
,,,-0.00055469359,0.000166667
,,,-0.00055468359,0.000166667
,,,-0.00055467359,0
,,,-0.00055466359,0.000166667
,,,-0.00055465359,0.000166667
,,,-0.00055464359,0.000166667
,,,-0.00055463359,0.000166667
,,,-0.00055462359,0.000166667
,,,-0.00055461359,0
,,,-0.00055460359,0.000166667
,,,-0.00055459359,0.000166667
,,,-0.00055458359,0.000333333
,,,-0.00055457359,0.000166667
,,,-0.00055456359,0.000166667
,,,-0.00055455359,0
,,,-0.00055454359,0.000166667
,,,-0.00055453359,0.000166667
,,,-0.00055452359,0
,,,-0.00055451359,0.000166667
,,,-0.00055450359,0
,,,-0.00055449359,0.000166667
,,,-0.00055448359,0.000166667
,,,-0.00055447359,0.000166667
,,,-0.00055446359,0
,,,-0.00055445359,0
,,,-0.00055444359,0.000166667
,,,-0.00055443359,0.000166667
,,,-0.00055442359,0
,,,-0.00055441359,0.000166667
,,,-0.00055440359,0
,,,-0.00055439359,0.000166667
,,,-0.00055438359,0.000166667
,,,-0.00055437359,0
,,,-0.00055436359,0.000166667
,,,-0.00055435359,0
,,,-0.00055434359,0
,,,-0.00055433359,0
,,,-0.00055432359,-0.000166667
,,,-0.00055431359,0.000166667
,,,-0.00055430359,0.000166667
,,,-0.00055429359,0.000166667
,,,-0.00055428359,0.000166667
,,,-0.00055427359,0.000166667
,,,-0.00055426359,0.000166667
,,,-0.00055425359,0.000166667
,,,-0.00055424359,0.000166667
,,,-0.00055423359,0
,,,-0.00055422359,0.000166667
,,,-0.00055421359,0.000166667
,,,-0.00055420359,0.000166667
,,,-0.00055419359,0.000166667
,,,-0.00055418359,0
,,,-0.00055417359,-0.000166667
,,,-0.00055416359,0.000166667
,,,-0.00055415359,0
,,,-0.00055414359,0.000166667
,,,-0.00055413359,0
,,,-0.00055412359,0
,,,-0.00055411359,0.000166667
,,,-0.00055410359,0
,,,-0.00055409359,0.000166667
,,,-0.00055408359,0.000166667
,,,-0.00055407359,0.000166667
,,,-0.00055406359,0.000166667
,,,-0.00055405359,0.000166667
,,,-0.00055404359,0.000166667
,,,-0.00055403359,0
,,,-0.00055402359,0.000166667
,,,-0.00055401359,0.000166667
,,,-0.00055400359,0
,,,-0.00055399359,0
,,,-0.00055398359,-0.000166667
,,,-0.00055397359,0
,,,-0.00055396359,0
,,,-0.00055395359,0.000166667
,,,-0.00055394359,0.000166667
,,,-0.00055393359,0.000166667
,,,-0.00055392359,0
,,,-0.00055391359,-0.000166667
,,,-0.00055390359,0.000166667
,,,-0.00055389359,0.000166667
,,,-0.00055388359,-0.000166667
,,,-0.00055387359,0.000166667
,,,-0.00055386359,0.000166667
,,,-0.00055385359,0.000166667
,,,-0.00055384359,0
,,,-0.00055383359,0
,,,-0.00055382359,0.000166667
,,,-0.00055381359,0.000166667
,,,-0.00055380359,0.000166667
,,,-0.00055379359,0.000166667
,,,-0.00055378359,0
,,,-0.00055377359,0.000166667
,,,-0.00055376359,0
,,,-0.00055375359,0
,,,-0.00055374359,0.000166667
,,,-0.00055373359,-0.000166667
,,,-0.00055372359,0
,,,-0.00055371359,0.000166667
,,,-0.00055370359,0
,,,-0.00055369359,-0.000166667
,,,-0.00055368359,0
,,,-0.00055367359,0.000166667
,,,-0.00055366359,0.000166667
,,,-0.00055365359,0.000333333
,,,-0.00055364359,0.000333333
,,,-0.00055363359,0.000166667
,,,-0.00055362359,-0.000166667
,,,-0.00055361359,0.000166667
,,,-0.00055360359,0.000166667
,,,-0.00055359359,-0.000166667
,,,-0.00055358359,0
,,,-0.00055357359,0.000166667
,,,-0.00055356359,0.000166667
,,,-0.00055355359,0.000166667
,,,-0.00055354359,0.000166667
,,,-0.00055353359,0.000166667
,,,-0.00055352359,0
,,,-0.00055351359,0.000166667
,,,-0.00055350359,0.000166667
,,,-0.00055349359,0
,,,-0.00055348359,0.000166667
,,,-0.00055347359,0.000333333
,,,-0.00055346359,0
,,,-0.00055345359,0
,,,-0.00055344359,0
,,,-0.00055343359,0
,,,-0.00055342359,0.000166667
,,,-0.00055341359,0.000166667
,,,-0.00055340359,0.000166667
,,,-0.00055339359,0
,,,-0.00055338359,0.000166667
,,,-0.00055337359,0
,,,-0.00055336359,0.000166667
,,,-0.00055335359,0.000166667
,,,-0.00055334359,0
,,,-0.00055333359,0.000166667
,,,-0.00055332359,0.000166667
,,,-0.00055331359,0.000166667
,,,-0.00055330359,0
,,,-0.00055329359,0.000166667
,,,-0.00055328359,0.000166667
,,,-0.00055327359,0.000166667
,,,-0.00055326359,0.000166667
,,,-0.00055325359,0.000166667
,,,-0.00055324359,0
,,,-0.00055323359,0.000166667
,,,-0.00055322359,0
,,,-0.00055321359,0.000166667
,,,-0.00055320359,-0.000166667
,,,-0.00055319359,0
,,,-0.00055318359,0.000166667
,,,-0.00055317359,0
,,,-0.00055316359,0.000166667
,,,-0.00055315359,0
,,,-0.00055314359,0
,,,-0.00055313359,0.000166667
,,,-0.00055312359,0.000166667
,,,-0.00055311359,0.000166667
,,,-0.00055310359,0
,,,-0.00055309359,0
,,,-0.00055308359,0.000166667
,,,-0.00055307359,0.000166667
,,,-0.00055306359,0.000166667
,,,-0.00055305359,0.000166667
,,,-0.00055304359,0.000166667
,,,-0.00055303359,0.000166667
,,,-0.00055302359,0.000166667
,,,-0.00055301359,0.000166667
,,,-0.00055300359,0
,,,-0.00055299359,0.000166667
,,,-0.00055298359,0
,,,-0.00055297359,0
,,,-0.00055296359,0.000166667
,,,-0.00055295359,0.000166667
,,,-0.00055294359,0.000166667
,,,-0.00055293359,0
,,,-0.00055292359,-0.000166667
,,,-0.00055291359,0.000166667
,,,-0.00055290359,0
,,,-0.00055289359,0.000166667
,,,-0.00055288359,0
,,,-0.00055287359,0.000166667
,,,-0.00055286359,0.000166667
,,,-0.00055285359,0
,,,-0.00055284359,0.000166667
,,,-0.00055283359,0.000166667
,,,-0.00055282359,0.000166667
,,,-0.00055281359,0.000166667
,,,-0.00055280359,0
,,,-0.00055279359,0.000166667
,,,-0.00055278359,0
,,,-0.00055277359,0.000166667
,,,-0.00055276359,0
,,,-0.00055275359,-0.000166667
,,,-0.00055274359,0.000166667
,,,-0.00055273359,-0.000166667
,,,-0.00055272359,0
,,,-0.00055271359,0.000333333
,,,-0.00055270359,0
,,,-0.00055269359,0.000166667
,,,-0.00055268359,0
,,,-0.00055267359,0.000166667
,,,-0.00055266359,0.000166667
,,,-0.00055265359,0.000166667
,,,-0.00055264359,0.000166667
,,,-0.00055263359,0.000166667
,,,-0.00055262359,0
,,,-0.00055261359,0.000166667
,,,-0.00055260359,0.000166667
,,,-0.00055259359,0
,,,-0.00055258359,0.000166667
,,,-0.00055257359,0.000166667
,,,-0.00055256359,0
,,,-0.00055255359,0
,,,-0.00055254359,0
,,,-0.00055253359,-0.000166667
,,,-0.00055252359,0.000166667
,,,-0.00055251359,0.000166667
,,,-0.00055250359,0.000166667
,,,-0.00055249359,0.000166667
,,,-0.00055248359,0
,,,-0.00055247359,0.000166667
,,,-0.00055246359,0.000166667
,,,-0.00055245359,0
,,,-0.00055244359,0.000166667
,,,-0.00055243359,0
,,,-0.00055242359,0.000166667
,,,-0.00055241359,-0.000166667
,,,-0.00055240359,-0.000166667
,,,-0.00055239359,0
,,,-0.00055238359,0
,,,-0.00055237359,0.000166667
,,,-0.00055236359,0.000166667
,,,-0.00055235359,0.000166667
,,,-0.00055234359,0
,,,-0.00055233359,0
,,,-0.00055232359,0
,,,-0.00055231359,0.000166667
,,,-0.00055230359,0.000166667
,,,-0.00055229359,0
,,,-0.00055228359,0
,,,-0.00055227359,0.000166667
,,,-0.00055226359,-0.000166667
,,,-0.00055225359,0
,,,-0.00055224359,0.000166667
,,,-0.00055223359,0.000166667
,,,-0.00055222359,0.000166667
,,,-0.00055221359,0.000166667
,,,-0.00055220359,0.000166667
,,,-0.00055219359,0.000166667
,,,-0.00055218359,0.000166667
,,,-0.00055217359,0.000166667
,,,-0.00055216359,0
,,,-0.00055215359,0.000166667
,,,-0.00055214359,0.000166667
,,,-0.00055213359,0.000166667
,,,-0.00055212359,0
,,,-0.00055211359,0
,,,-0.00055210359,0
,,,-0.00055209359,0
,,,-0.00055208359,0.000166667
,,,-0.00055207359,0.000166667
,,,-0.00055206359,0.000166667
,,,-0.00055205359,0.000166667
,,,-0.00055204359,-0.000166667
,,,-0.00055203359,0
,,,-0.00055202359,0.000166667
,,,-0.00055201359,0.000166667
,,,-0.00055200359,0.000166667
,,,-0.00055199359,0.000166667
,,,-0.00055198359,0.000166667
,,,-0.00055197359,0.000166667
,,,-0.00055196359,0
,,,-0.00055195359,0.000166667
,,,-0.00055194359,-0.000166667
,,,-0.00055193359,0
,,,-0.00055192359,0
,,,-0.00055191359,0.000166667
,,,-0.00055190359,0
,,,-0.00055189359,0
,,,-0.00055188359,0
,,,-0.00055187359,0
,,,-0.00055186359,0.000166667
,,,-0.00055185359,0.000166667
,,,-0.00055184359,-0.000166667
,,,-0.00055183359,0
,,,-0.00055182359,0
,,,-0.00055181359,0
,,,-0.00055180359,0.000166667
,,,-0.00055179359,0.000166667
,,,-0.00055178359,0.000166667
,,,-0.00055177359,-0.000166667
,,,-0.00055176359,0
,,,-0.00055175359,0.000166667
,,,-0.00055174359,0
,,,-0.00055173359,0.000166667
,,,-0.00055172359,0
,,,-0.00055171359,0
,,,-0.00055170359,0
,,,-0.00055169359,0
,,,-0.00055168359,0.000166667
,,,-0.00055167359,0
,,,-0.00055166359,0
,,,-0.00055165359,0.000166667
,,,-0.00055164359,0
,,,-0.00055163359,0.000166667
,,,-0.00055162359,-0.000166667
,,,-0.00055161359,0
,,,-0.00055160359,0
,,,-0.00055159359,0.000166667
,,,-0.00055158359,0.000166667
,,,-0.00055157359,0
,,,-0.00055156359,0.000166667
,,,-0.00055155359,0.000166667
,,,-0.00055154359,0.000166667
,,,-0.00055153359,0
,,,-0.00055152359,0
,,,-0.00055151359,0.000166667
,,,-0.00055150359,0
,,,-0.00055149359,0.000166667
,,,-0.00055148359,0.000166667
,,,-0.00055147359,0
,,,-0.00055146359,0.000166667
,,,-0.00055145359,0.000166667
,,,-0.00055144359,0.000166667
,,,-0.00055143359,-0.000166667
,,,-0.00055142359,-0.000166667
,,,-0.00055141359,0.000166667
,,,-0.00055140359,0.000166667
,,,-0.00055139359,0.000166667
,,,-0.00055138359,0.000166667
,,,-0.00055137359,0
,,,-0.00055136359,0
,,,-0.00055135359,0.000166667
,,,-0.00055134359,0.000166667
,,,-0.00055133359,0.000166667
,,,-0.00055132359,-0.000166667
,,,-0.00055131359,0.000166667
,,,-0.00055130359,0
,,,-0.00055129359,0.000166667
,,,-0.00055128359,0
,,,-0.00055127359,0.000166667
,,,-0.00055126359,0.000166667
,,,-0.00055125359,0
,,,-0.00055124359,0.000166667
,,,-0.00055123359,0.000166667
,,,-0.00055122359,0
,,,-0.00055121359,0.000166667
,,,-0.00055120359,-0.000166667
,,,-0.00055119359,0.000166667
,,,-0.00055118359,-0.000166667
,,,-0.00055117359,0
,,,-0.00055116359,0
,,,-0.00055115359,-0.000166667
,,,-0.00055114359,0.000166667
,,,-0.00055113359,0.000166667
,,,-0.00055112359,0.000166667
,,,-0.00055111359,0.000166667
,,,-0.00055110359,-0.000166667
,,,-0.00055109359,0.000166667
,,,-0.00055108359,0
,,,-0.00055107359,0.000166667
,,,-0.00055106359,0.000166667
,,,-0.00055105359,0
,,,-0.00055104359,0.000166667
,,,-0.00055103359,0.000166667
,,,-0.00055102359,0.000166667
,,,-0.00055101359,0
,,,-0.00055100359,0
,,,-0.00055099359,0.000166667
,,,-0.00055098359,0
,,,-0.00055097359,-0.000166667
,,,-0.00055096359,0.000166667
,,,-0.00055095359,0
,,,-0.00055094359,0
,,,-0.00055093359,0
,,,-0.00055092359,0.000166667
,,,-0.00055091359,0.000166667
,,,-0.00055090359,0
,,,-0.00055089359,0.000166667
,,,-0.00055088359,0
,,,-0.00055087359,0
,,,-0.00055086359,0
,,,-0.00055085359,0
,,,-0.00055084359,0.000166667
,,,-0.00055083359,0
,,,-0.00055082359,0.000166667
,,,-0.00055081359,0
,,,-0.00055080359,0.000166667
,,,-0.00055079359,0.000166667
,,,-0.00055078359,0
,,,-0.00055077359,0
,,,-0.00055076359,0
,,,-0.00055075359,0.000166667
,,,-0.00055074359,0.000166667
,,,-0.00055073359,0
,,,-0.00055072359,0
,,,-0.00055071359,0
,,,-0.00055070359,0
,,,-0.00055069359,0.000166667
,,,-0.00055068359,0.000166667
,,,-0.00055067359,0.000166667
,,,-0.00055066359,0.000166667
,,,-0.00055065359,0.000166667
,,,-0.00055064359,0.000333333
,,,-0.00055063359,0
,,,-0.00055062359,0.000166667
,,,-0.00055061359,0.000166667
,,,-0.00055060359,0.000166667
,,,-0.00055059359,0.000166667
,,,-0.00055058359,0.000166667
,,,-0.00055057359,0.000166667
,,,-0.00055056359,0
,,,-0.00055055359,0.000333333
,,,-0.00055054359,0.000166667
,,,-0.00055053359,0.000166667
,,,-0.00055052359,0.000166667
,,,-0.00055051359,0
,,,-0.00055050359,0.000166667
,,,-0.00055049359,0.000166667
,,,-0.00055048359,0.000166667
,,,-0.00055047359,0.000166667
,,,-0.00055046359,0
,,,-0.00055045359,0.000166667
,,,-0.00055044359,0.000166667
,,,-0.00055043359,0.000166667
,,,-0.00055042359,0.000166667
,,,-0.00055041359,0.000166667
,,,-0.00055040359,0.000166667
,,,-0.00055039359,0
,,,-0.00055038359,-0.000166667
,,,-0.00055037359,0
,,,-0.00055036359,0
,,,-0.00055035359,0.000166667
,,,-0.00055034359,0.000166667
,,,-0.00055033359,0.000166667
,,,-0.00055032359,0
,,,-0.00055031359,0
,,,-0.00055030359,0.000166667
,,,-0.00055029359,0.000166667
,,,-0.00055028359,0.000166667
,,,-0.00055027359,-0.000166667
,,,-0.00055026359,-0.00133333
,,,-0.00055025359,-0.000666667
,,,-0.00055024359,0
,,,-0.00055023359,0.000166667
,,,-0.00055022359,0
,,,-0.00055021359,0.000166667
,,,-0.00055020359,0.000833333
,,,-0.00055019359,0.0005
,,,-0.00055018359,0.000166667
,,,-0.00055017359,-0.000166667
,,,-0.00055016359,-0.000166667
,,,-0.00055015359,0
,,,-0.00055014359,0.000333333
,,,-0.00055013359,0.000166667
,,,-0.00055012359,0
,,,-0.00055011359,0
,,,-0.00055010359,0.000166667
,,,-0.00055009359,0
,,,-0.00055008359,0.000166667
,,,-0.00055007359,-0.000166667
,,,-0.00055006359,0.000166667
,,,-0.00055005359,0.000166667
,,,-0.00055004359,0.000166667
,,,-0.00055003359,0.000166667
,,,-0.00055002359,0.000166667
,,,-0.00055001359,0.000166667
,,,-0.00055000359,0.000166667
,,,-0.00054999359,0.000166667
,,,-0.00054998359,0
,,,-0.00054997359,0
,,,-0.00054996359,0.000166667
,,,-0.00054995359,0.000166667
,,,-0.00054994359,0
,,,-0.00054993359,0.000166667
,,,-0.00054992359,0.000166667
,,,-0.00054991359,0.000166667
,,,-0.00054990359,-0.000166667
,,,-0.00054989359,0
,,,-0.00054988359,0.000166667
,,,-0.00054987359,0
,,,-0.00054986359,0.000166667
,,,-0.00054985359,0
,,,-0.00054984359,0
,,,-0.00054983359,0.000166667
,,,-0.00054982359,0
,,,-0.00054981359,0.000166667
,,,-0.00054980359,0.000166667
,,,-0.00054979359,0
,,,-0.00054978359,0.000166667
,,,-0.00054977359,-0.000166667
,,,-0.00054976359,0.000166667
,,,-0.00054975359,0
,,,-0.00054974359,0.000166667
,,,-0.00054973359,0.000166667
,,,-0.00054972359,0.000166667
,,,-0.00054971359,0.000333333
,,,-0.00054970359,-0.000166667
,,,-0.00054969359,0
,,,-0.00054968359,0.000166667
,,,-0.00054967359,0.000333333
,,,-0.00054966359,0.000666667
,,,-0.00054965359,0
,,,-0.00054964359,0
,,,-0.00054963359,0.000166667
,,,-0.00054962359,0
,,,-0.00054961359,0.000166667
,,,-0.00054960359,0.000166667
,,,-0.00054959359,0.000333333
,,,-0.00054958359,0.000166667
,,,-0.00054957359,0
,,,-0.00054956359,0.000166667
,,,-0.00054955359,0.000166667
,,,-0.00054954359,0
,,,-0.00054953359,0.000166667
,,,-0.00054952359,0.000166667
,,,-0.00054951359,0.000166667
,,,-0.00054950359,0
,,,-0.00054949359,0.000166667
,,,-0.00054948359,0.000166667
,,,-0.00054947359,0.000166667
,,,-0.00054946359,0.000166667
,,,-0.00054945359,0
,,,-0.00054944359,0.000166667
,,,-0.00054943359,0
,,,-0.00054942359,0.000166667
,,,-0.00054941359,0.000166667
,,,-0.00054940359,0
,,,-0.00054939359,0
,,,-0.00054938359,0
,,,-0.00054937359,0.000166667
,,,-0.00054936359,0.000166667
,,,-0.00054935359,0
,,,-0.00054934359,0.000166667
,,,-0.00054933359,0.000166667
,,,-0.00054932359,0
,,,-0.00054931359,0.000166667
,,,-0.00054930359,0
,,,-0.00054929359,0.000166667
,,,-0.00054928359,0
,,,-0.00054927359,0.000166667
,,,-0.00054926359,0.000166667
,,,-0.00054925359,0
,,,-0.00054924359,0.000166667
,,,-0.00054923359,0
,,,-0.00054922359,0.000166667
,,,-0.00054921359,0.000166667
,,,-0.00054920359,0
,,,-0.00054919359,0.000166667
,,,-0.00054918359,0.000166667
,,,-0.00054917359,0
,,,-0.00054916359,0
,,,-0.00054915359,0.000166667
,,,-0.00054914359,0
,,,-0.00054913359,0
,,,-0.00054912359,0.000166667
,,,-0.00054911359,0.000166667
,,,-0.00054910359,0.000166667
,,,-0.00054909359,0.000166667
,,,-0.00054908359,0.000166667
,,,-0.00054907359,0
,,,-0.00054906359,0
,,,-0.00054905359,0
,,,-0.00054904359,0
,,,-0.00054903359,0
,,,-0.00054902359,0.000166667
,,,-0.00054901359,0
,,,-0.00054900359,0.000166667
,,,-0.00054899359,0.000166667
,,,-0.00054898359,0
,,,-0.00054897359,0.000166667
,,,-0.00054896359,0
,,,-0.00054895359,0.000166667
,,,-0.00054894359,0.000166667
,,,-0.00054893359,-0.000166667
,,,-0.00054892359,0.000166667
,,,-0.00054891359,0.000166667
,,,-0.00054890359,0.000166667
,,,-0.00054889359,0
,,,-0.00054888359,0
,,,-0.00054887359,0
,,,-0.00054886359,0.000166667
,,,-0.00054885359,0.000166667
,,,-0.00054884359,0
,,,-0.00054883359,0
,,,-0.00054882359,0
,,,-0.00054881359,0.000166667
,,,-0.00054880359,-0.000166667
,,,-0.00054879359,0.000166667
,,,-0.00054878359,0.000166667
,,,-0.00054877359,0
,,,-0.00054876359,0
,,,-0.00054875359,0.000166667
,,,-0.00054874359,0.000166667
,,,-0.00054873359,0
,,,-0.00054872359,0.000166667
,,,-0.00054871359,0
,,,-0.00054870359,0
,,,-0.00054869359,0.000166667
,,,-0.00054868359,0
,,,-0.00054867359,0
,,,-0.00054866359,0
,,,-0.00054865359,0.000166667
,,,-0.00054864359,0
,,,-0.00054863359,0
,,,-0.00054862359,-0.000166667
,,,-0.00054861359,-0.000166667
,,,-0.00054860359,0
,,,-0.00054859359,-0.000166667
,,,-0.00054858359,0.000166667
